{
    "type": "service_account",
    "project_id": "inside-arimac",
    "private_key_id": "652d92a586f84fe7c79b21aae98af66306363c60",
    "private_key": "-----BEGIN PRIVATE KEY-----\nMIIEvQIBADANBgkqhkiG9w0BAQEFAASCBKcwggSjAgEAAoIBAQDSVdnqC/fo2zGR\n5L8wP5JfRsABB7VCd3rBNUD4KIyB9vF66M4xpUVqnAXr88p34kfKvo/J+W+AaqMA\nz0skr/PEUZqaLG8BUtKVp9UZO/SfDc86InNkmcao+R2le+W/kTKYue1Nuk60Sf/t\nU53Wt7Fj1hn23v3sMgMS0lFFhWjIHVQsshymQQhIBXDT6jly2fqhORVcBcE8BHa8\nmlite/USmPSBiXgKm1GWmkgrfWYiupjU4Tc1MqaggRhEOm+cVXbkO8+DQuUg4wcg\n6+KwlD6KLkIcfUZ55Nsb+Z1lgj3nBVsgqKrUdxsbUkTplnUxmBlf4Uctfp/2prgL\n9s+ppXCnAgMBAAECggEAXw02B6s18tCPk6dEcTjhXFYcMbr6gll9K2/19s9YQ+lF\nUm5/s/bEqntsv6bx4gBrwicg0rz60xUdqaGEC0XKivb3v2GCHp5/lOr+BcPO9cvn\nUJW+AQHvQXAmoiCeAFbM/zDSmTQvGhFw6x7E7wIfU4cvP52hMYqeUfSijqDN69Rm\n6KvGCFpvp4tbhD1uFc+2cXNcUrwZvHzFPfu799DoaWVZVNMeC3O/wAgN9zREm8gL\neee775Ciad4vFM+BBibsoNlemKBkRaUjEVEfYqEA4xRsQN+ekzpo1A2nig2Gwmse\ni3Sxow/CRpphOnsaAnVvTGlP/n7jDBGvgFfOMLQjDQKBgQD5uQB7AIGL2tTKU4l2\nV5g/9cqemfuJoHHyW6xLEP5QOVHJ4QpHoHEwmdlPUdwBsy4g+ekI0qRYXC1OfLs6\nV+A4xshZFug0Rw3t+SBeOlV6hPTdI2rrIZnABIbwhfWAuYKbhE7YdZd3RG14ewzP\nG8g7aF1BvPwSdssq1OORby2ojQKBgQDXn2MJID+l5lifjik5A87LVn6d6efqF+jR\nxxHmSScCWcrORlZ6UaBjPoJUi8PJqcfmo7HVslro4iZbTo5XLQH5iFPjHF5h8yAD\nM1U2PvtX/Bou2NcHw8MjTJp0EYpw+56d02Ab/gHlm3HH6G84aE4LC7cjKbfQzhUQ\nD5VLJYITAwKBgE3T25N6J+W3cMQR3vCUAi5E4z4kzWEqMPkQmxTWGfxUsOnTCgoi\ntcQo3rI61+9rsX+zg24tf+zN5YzlkNBxHL91LHGfkwTf9DZrgyv60DMcBth4tlTL\npwhSIOALT+Ura8oeJRiPJYKVP+zhpK9TgEcLkqzvQjxa65zQto/X74ntAoGASSYI\nOftXvFdFr3NR5sa06+R+9eF5TMApuqj3GJGuiyydEZdpFPwGFkUJf9ceZ5aSe1sD\nJITqNGEsNAOVZFufdODb3IsuNbp+HLfYa5u4NuQOmd/0Ku0tkRcWutOMjMG/0Lj5\nvOVSDWvLkM74lEFGYJbr3SD0/AA9wwIWWrTxyLMCgYEAv0ACXY5PHh5C6+Hd07hm\n/RA+Euxj8tU9wHPSZTDxUg7g99KWyI2sOLen0wP5l0yVZHTPT94P0FlpOeEl6OjF\nna+PA1h20/ZZkXfrE9IwTcNouO2qAd3z3a/7ewjQIl2DB7bS5QYdlZW2RMGM3sQn\nyAaCuZp6v+mpTh5Ooz6j4fU=\n-----END PRIVATE KEY-----\n",
    "client_email": "gcs-bucket-sa@inside-arimac.iam.gserviceaccount.com",
    "client_id": "109809436673116417970",
    "auth_uri": "https://accounts.google.com/o/oauth2/auth",
    "token_uri": "https://oauth2.googleapis.com/token",
    "auth_provider_x509_cert_url": "https://www.googleapis.com/oauth2/v1/certs",
    "client_x509_cert_url": "https://www.googleapis.com/robot/v1/metadata/x509/gcs-bucket-sa%40inside-arimac.iam.gserviceaccount.com"
  }
  